<svg width="58" height="58" viewBox="0 0 58 58" fill="none" xmlns="http://www.w3.org/2000/svg">
<circle cx="29" cy="29" r="29" fill="#84B943"/>
<path d="M36.3473 32.154C36.2843 32.124 33.9423 30.97 33.5263 30.821C33.3527 30.7493 33.168 30.7084 32.9803 30.7C32.8196 30.7029 32.6624 30.7474 32.5241 30.8293C32.3858 30.9111 32.2711 31.0275 32.1913 31.167C31.9573 31.515 31.2493 32.343 31.0303 32.59C31.0013 32.623 30.9623 32.662 30.9393 32.662C30.9163 32.662 30.5563 32.513 30.4463 32.462C28.5536 31.5018 26.9409 30.0693 25.7643 28.303C25.7453 28.2748 25.7321 28.2433 25.7253 28.21C25.7631 28.1498 25.8093 28.0953 25.8623 28.048C25.9903 27.922 26.1283 27.755 26.2623 27.594C26.3253 27.518 26.3893 27.441 26.4513 27.369C26.606 27.188 26.7343 26.986 26.8323 26.769L26.8843 26.664C26.9638 26.5032 27.0025 26.3253 26.9969 26.146C26.9913 25.9667 26.9417 25.7915 26.8523 25.636C26.7973 25.525 25.8073 23.136 25.7023 22.887C25.4493 22.282 25.1153 22 24.6513 22C24.6083 22 24.6513 22 24.4703 22.008C23.7962 22.0561 23.1363 22.2255 22.5223 22.508C22.0087 22.921 21.6028 23.4523 21.3395 24.0564C21.0761 24.6606 20.9632 25.3196 21.0103 25.977C21.1231 27.4811 21.6881 28.9159 22.6313 30.093C22.6433 30.109 22.6653 30.142 22.6983 30.193C24.285 32.6798 26.5583 34.6534 29.2433 35.875C30.4835 36.4637 31.8258 36.807 33.1963 36.886C33.4112 36.8845 33.6258 36.8718 33.8393 36.848L33.9543 36.837C34.5591 36.7308 35.1329 36.4918 35.6343 36.1374C36.1358 35.7829 36.5524 35.3217 36.8543 34.787C37.156 34.1172 37.2212 33.3647 37.0393 32.653C36.8627 32.4223 36.622 32.2487 36.3473 32.154Z" fill="white"/>
<path d="M29.3514 12.868C25.1829 12.8571 21.1802 14.5001 18.2215 17.4367C15.2629 20.3732 13.5898 24.3634 13.5694 28.532C13.5679 31.3185 14.3153 34.0543 15.7334 36.453L13.0224 44.453C12.9974 44.5261 12.9932 44.6048 13.0103 44.6802C13.0275 44.7556 13.0652 44.8248 13.1194 44.88C13.1735 44.9352 13.2419 44.9742 13.317 44.9928C13.3921 45.0113 13.4708 45.0086 13.5444 44.985L21.8824 42.336C24.2801 43.6161 26.9674 44.2563 29.6847 44.1948C32.402 44.1333 35.0576 43.3722 37.3949 41.9849C39.7322 40.5977 41.6724 38.6312 43.0279 36.2753C44.3835 33.9195 45.1087 31.2539 45.1334 28.536C45.1144 24.3667 43.4419 20.3753 40.483 17.4378C37.5242 14.5003 33.5208 12.8568 29.3514 12.868ZM29.3514 40.931C26.9072 40.9346 24.5156 40.2215 22.4724 38.88C22.4206 38.8459 22.3619 38.8239 22.3005 38.8154C22.2391 38.8069 22.1765 38.8122 22.1174 38.831L17.9414 40.159L19.2894 36.181C19.3108 36.1176 19.3166 36.0499 19.3064 35.9838C19.2961 35.9176 19.2701 35.8549 19.2304 35.801C17.6803 33.6948 16.8462 31.1471 16.8504 28.532C16.8306 26.0555 17.5469 23.629 18.9083 21.5603C20.2697 19.4916 22.2149 17.8739 24.4972 16.9124C26.7795 15.951 29.2959 15.6891 31.7272 16.1601C34.1585 16.6311 36.3951 17.8136 38.1533 19.5577C39.9115 21.3018 41.112 23.5289 41.6024 25.9563C42.0929 28.3838 41.8513 30.9022 40.9082 33.1921C39.9651 35.482 38.3631 37.4402 36.3053 38.8182C34.2476 40.1962 31.8269 40.9319 29.3504 40.932L29.3514 40.931Z" fill="white"/>
</svg>
